[general]
creator=R package 'raster'
created=2019-06-28 11:26:43
[georeference]
nrows=99
ncols=109
xmin=728710.613163165
ymin=4404098.89471159
xmax=806100.613163165
ymax=4495673.89471159
projection=+init=epsg:32633 +proj=utm +zone=33 +datum=WGS84 +units=m +no_defs +ellps=WGS84 +towgs84=0,0,0
[data]
datatype=FLT4S
byteorder=little
nbands=1
bandorder=BIL
categorical=FALSE
minvalue=1183.71369397591
maxvalue=1354.58982156192
nodatavalue=-3.4e+38
[legend]
legendtype=
values=
color=
[description]
layername=index_1
